540569 73955 470
932802 533752 525
59933 3547 340
261174 681290 509
290273 232906 407
34256 946182 525
144368 998445 525
872833 687446 525
563518 852824 525
532931 817886 509
521666 474869 470
950810 560973 525
904701 331020 525
657381 501591 509
436901 394090 449
374349 543252 470
728038 889983 525
649322 744091 504
983595 2641 525
955031 94180 525
789322 185388 509
841029 781952 525
121374 280416 443
996422 516165 525
119224 508063 449
265559 535550 470
55609 505470 449
592020 575785 434
426011 142647 449
39741 414273 449
434137 69912 449
627089 426752 509
6540 275994 443
842596 900039 445
647629 433110 509
154270 58001 375
608724 274691 470
271151 273440 314
875046 398133 525
419032 438788 418
753677 217698 509
163559 423020 449
330723 771243 509
807795 405051 509
243968 472875 449
781551 705294 468
658745 878287 525
807438 298234 509
218227 624124 470
235038 976370 525
40265 640817 509
274336 682176 509
604758 445429 470
397159 201308 443
655786 86318 509
975559 25559 525
392473 288590 441
61838 867266 525
299590 376518 441
80887 541580 470
975323 130906 525
930920 467658 525
209663 868666 525
324986 104461 443
836269 153054 509
376277 289035 441
39323 485264 449
841936 8534 525
564077 115407 470
683136 275792 509
342883 892845 525
576214 393057 470
396904 538755 470
157759 271364 443
675562 123692 509
947583 983474 458
219839 957543 525
255300 485891 449
525307 347498 470
167179 438890 449
914422 262232 525
717390 851829 525
608165 119420 470
293952 936195 525
490146 923251 525
846112 660554 525
271333 813830 509
279837 220871 443
503288 661155 509
802483 146266 509
391546 951431 525
941352 84410 525
715061 195031 509
876612 151284 525
198683 138059 383
763938 316100 509
330206 598017 470
10682 1714 262
563296 308777 470
47199 109694 354
272263 40779 443
407295 971739 525
300953 774816 509
469398 759903 509
375484 102178 443
418019 783791 509
397008 172706 443
560961 643432 509
121361 914555 525
81573 8640 351
605767 52982 470
184534 163481 365
598004 731935 509
158544 362296 443
67528 424855 449
715062 315990 509
533917 713973 509
420554 931968 525
38804 793524 509
29514 127717 354
618342 261933 470
662102 77852 509
899849 673991 525
336497 893214 525
300506 497783 449
40698 720954 509
688139 741761 504
353456 819620 509
557126 822025 509
424040 841918 525
976900 770902 525
65548 962099 525
228334 928041 525
500960 870605 525
719585 169902 509
369309 301923 441
483363 396816 449
162417 36405 383
477346 840487 525
76442 379177 443
873083 133706 525
752894 988802 525
568600 366208 470
418649 34876 449
325641 979673 525
454047 840429 525
871788 735443 525
135037 519144 470
257831 37212 443
883115 826797 525
307207 401030 441
351719 486515 449
895978 593356 525
283401 2773 443
517108 408574 470
919256 637956 525
776941 635518 504
565527 35493 470
435671 732590 509
34228 177059 383
324713 10526 443
802679 164079 509
114772 964539 525
44463 960492 525
425085 264053 449
545516 113514 470
199347 989422 525
81023 382572 443
618424 883736 525
342914 395626 441
44000 404277 443
378687 576381 470
87196 320209 443
802835 872516 525
966103 573438 525
644155 44597 509
205677 448980 449
853201 614742 525
677154 592796 509
732678 125037 509
527238 645000 509
870761 954661 507
981829 916783 507
934490 434608 525
385302 469548 449
862921 833718 525
917993 565751 525
235493 48395 443
44058 660020 509
34834 925414 525
692263 243431 509
926729 722573 525
548438 502262 470
487300 118383 449
366965 69088 443
220629 702423 509
567279 395900 470
852142 340312 525
858982 374150 525
975998 322815 525
139402 109434 349
538684 42669 470
160349 412788 449
25750 615967 470
359923 816034 509
148031 363882 443
485469 417297 444
451632 627176 509
573319 436801 470
613972 295094 470
292013 95765 443
389984 995386 525
979581 512399 525
851488 531271 525
98608 742897 509
302226 447735 449
177467 138502 383
339111 737336 509
349213 691372 509
775541 876613 525
315423 268062 407
38163 983779 525
113489 704118 509
368709 149630 443
474675 251881 449
859802 704540 525
679385 61587 509
187289 332019 443
116689 159612 383
270669 440155 449
32433 186067 383
648092 995234 525
95917 153429 375
27080 103643 351
737784 523484 509
657316 372097 509
519924 2510 470
314947 184709 443
117568 786874 509
683283 625058 509
681627 648197 442
366379 41629 443
203869 523580 470
239834 312108 407
77006 570637 470
693428 219445 509
708827 762014 424
810807 49466 509
265607 687487 509
435724 140821 449
