1 10 20
100 200 125
201 210 89
900 1000 174
207823 30298 383
836517 671595 504
565875 405186 470
761418 36042 509
123383 762399 509
543557 987844 525
346550 89988 443
352915 941169 525
79143 270064 443
41408 306833 443
606166 62303 470
568927 918333 525
950890 452252 525
17487 441323 449
334547 509524 449
419255 876151 525
376367 951291 525
458142 626238 470
362431 585360 470
863668 764290 525
390574 736244 509
98693 177298 383
186051 628560 509
605603 420727 470
586932 943839 525
376579 318935 441
642769 209107 509
337460 49479 443
324065 425128 449
400964 538499 470
245806 501183 449
766870 848008 525
157499 818479 509
731498 787373 468
968656 971206 458
464300 274907 449
250774 401381 441
650719 22103 509
988927 458579 525
588564 330293 470
681960 518044 509
86256 138043 354
923065 115336 525
417461 580455 470
206132 766701 509
223317 108084 386
234588 827062 509
599526 870729 525
384405 410587 449
308056 420911 449
596288 30670 470
870084 412226 525
79936 979192 525
121851 735797 509
72942 733912 509
201055 586115 470
251816 75676 443
998991 82186 525
307493 319595 384
885418 237186 525
745849 609620 509
930276 278494 525
844822 476247 525
235559 333878 407
943083 755088 525
558708 545516 452
964189 255998 525
807208 573233 509
492237 445751 444
735885 255543 509
966905 240126 525
984404 87074 525
481894 111719 449
642764 407041 509
128255 922637 525
405377 18663 443
470092 859876 525
893544 527711 525
277057 330233 389
102886 466841 449
199767 91675 383
488925 951761 525
663839 985303 525
540329 628543 509
659402 966550 525
559360 115418 470
100744 979651 525
725326 599931 509
281923 824157 509
648272 933843 525
469547 829892 509
655007 848638 525
861748 297025 525
55557 777220 509
615422 597850 447
759175 983248 525
312327 819926 509
334966 436310 449
508097 913433 525
891475 458318 525
642157 988109 525
646479 1390 509
285078 706569 509
313273 576949 470
963314 364544 525
449798 188349 449
331913 313179 384
453843 34079 449
305830 921188 525
491326 36563 449
859150 975069 507
548840 931592 525
555767 956455 525
707546 185555 509
265572 415058 449
163602 940588 525
191750 607992 470
555844 20306 470
471874 544184 470
274899 264736 407
293845 674301 509
337162 975889 525
889003 691880 525
704370 137843 509
94652 804053 509
128586 41762 354
16841 716005 509
354502 696180 509
200632 298177 443
12184 296261 443
607390 43341 470
112037 543529 470
625943 889514 525
281784 957318 525
577513 192795 470
587357 294888 470
243104 443540 449
724231 795336 468
451699 387951 449
765491 66012 509
791494 423429 509
172178 533451 470
902336 23245 525
151596 152769 308
924540 818946 525
414786 359004 449
788 914524 525
379979 503622 449
81192 597022 470
569500 319183 470
828163 176072 509
15793 335079 443
66398 27038 340
771078 309049 509
286191 207779 443
245041 711321 509
497054 761316 509
435508 527992 470
857847 71682 525
127496 480565 449
458787 179957 449
627182 798624 504
661018 900816 525
426849 337451 449
964849 913656 507
315534 791641 509
105592 76857 351
761606 668633 504
467546 751039 509
195250 774829 509
483789 312676 449
751052 848629 525
360229 270149 441
317347 25379 443
132920 35399 354
266371 900045 525
524806 499139 470
394027 929367 525
62294 378044 443
287664 154013 443
2222 452565 449
363367 125550 443
49331 646857 509
602961 797395 509
996010 297660 525
990252 188183 525
296779 671494 509
601970 146993 470
528395 285879 470
231484 857994 525
233169 250553 381
904984 710483 525
924096 220764 525
498524 693479 509
745611 754249 424
440223 860380 525
574610 620320 447
155418 95891 375
409697 52077 443
748344 344623 509
646571 509806 509
299691 129349 443
46519 673670 509
920080 996664 507
911028 59916 525
249711 348624 441
612833 830358 509
632791 558450 509
59144 98425 351
857117 199494 525
637090 691058 442
612523 73358 470
439981 812118 509
533225 548496 452
501698 11047 449
490561 109341 449
845678 932384 476
133945 821749 509
350280 940780 525
634768 763213 504
819911 887446 525
571950 693111 509
861223 912885 476
312600 403673 441
282365 173323 443
196212 328326 443
552535 825866 509
553052 293568 470
446547 595855 470
271561 760054 509
119049 96493 354
117124 447293 449
535098 492158 470
643681 281691 509
63789 60968 335
380098 609983 470
206868 443668 449
206328 191531 360
874845 772562 525
70344 822958 509
144586 992751 525
714135 572085 509
531731 120208 470
739637 845709 525
797482 171083 509
21098 896567 525
683494 172792 509
857509 955809 507
239238 126640 443
186703 439886 449
