521321 802849 509
587316 158978 470
860749 79264 525
788815 104121 509
959229 546482 525
126705 668191 509
690930 57133 509
326026 575244 470
585202 689037 509
433177 152805 449
555886 859558 525
520914 106132 470
274841 204125 443
839494 235299 525
781381 900449 525
460402 301368 449
344567 49119 443
709349 537005 509
216602 391325 443
629828 348264 509
847990 372632 525
105443 148364 375
75014 516595 470
51526 236982 443
375358 803486 509
960020 796740 525
731939 821799 468
194101 820944 509
451089 747633 509
28287 811965 509
765952 451940 509
403528 853375 525
151214 943861 525
290646 244237 407
971044 699913 525
25769 500986 449
986892 632800 525
109659 649693 509
529091 366244 470
216445 651972 509
63857 715625 509
593242 945058 525
488152 329672 449
138423 562941 470
874015 719071 525
300932 725612 509
901175 606479 525
863 84609 351
488160 924607 525
316543 318155 353
277017 316803 389
32389 681234 509
375117 634668 509
612979 744454 509
296676 793698 509
90604 142987 375
518442 243543 470
491568 747564 509
984056 630973 525
859864 838338 419
41082 752636 509
78467 305774 443
768504 527393 509
401694 327091 441
958909 710021 525
849751 816255 525
216846 507647 449
464098 987967 525
711656 465779 509
425379 711355 509
554832 238495 470
147454 860517 525
392994 517072 470
707705 279683 509
442840 14357 449
295244 446065 449
263580 752957 509
874793 644555 525
489429 843752 525
602066 63207 470
414481 587134 470
134164 320850 443
477164 176510 449
986459 179559 525
28053 750016 509
379354 621020 470
122399 278993 443
472853 15117 449
976940 8332 525
43992 710379 509
30934 179713 383
578052 291655 470
633845 664374 429
612615 643556 509
628773 709898 504
76617 169112 383
300094 657809 509
49778 385611 443
659602 522325 509
569655 54023 470
495483 140283 449
781933 844944 525
338594 696488 509
543257 917817 525
162775 530501 470
948183 935019 507
678142 648428 442
345182 556189 470
682729 107882 509
530254 947754 525
813069 372659 509
48228 587365 470
737156 324468 509
919226 47673 525
701315 691669 442
692732 481849 509
265110 262129 407
21410 300547 443
814314 237161 509
22607 294314 443
13427 269219 443
564640 372858 470
791810 581503 509
970759 892016 507
660735 485685 509
352261 696950 509
24392 67236 340
170705 381123 443
62365 42579 340
230419 985868 525
728190 715972 411
331669 519950 470
419464 592024 470
231972 484344 449
183179 361491 443
238801 278706 407
90750 943568 525
339795 44123 443
758685 541730 509
653704 516261 509
416602 564846 470
953036 664578 525
582643 811197 509
10789 840170 525
704408 754152 504
248788 80037 443
843938 640114 525
534671 834030 509
986048 170002 525
965806 46586 525
488255 50831 449
854755 18549 525
875774 26300 525
905397 691660 525
185402 349067 443
382861 575999 470
139219 668150 509
904457 246426 525
589753 452709 470
832815 689325 504
754458 914373 525
368092 92337 443
500968 878690 525
229059 367884 443
519632 620554 452
387834 683025 509
359930 821553 509
710700 413960 509
354636 609282 470
705796 972487 525
879016 781758 525
74282 865621 525
826188 810006 450
443928 186684 449
407084 815122 509
425978 570185 470
272769 885309 525
561590 493932 470
309486 657032 509
247674 207409 443
268471 67024 443
243345 373509 441
277860 987858 525
910065 510028 525
792396 807561 468
413904 621502 470
894775 306189 525
976811 171836 525
722332 978067 525
331346 804387 509
106243 772416 509
704652 324629 509
398366 953528 525
272028 746651 509
371399 509529 449
744348 910522 525
971623 659720 525
255320 236242 368
221205 940125 525
912048 334373 525
655040 5281 509
862151 837225 525
465834 314331 449
46394 273193 443
3869 911016 525
371520 794450 509
276349 518276 470
820136 823765 375
123511 859984 525
655657 478056 509
4789 173730 383
970070 508616 525
471207 290173 449
67541 436581 449
967093 25865 525
764322 92707 509
214614 436372 449
222334 299867 443
640755 886602 525
207961 962606 525
606143 107238 470
829544 737259 468
506926 125305 449
410050 352439 449
909127 104500 525
253081 487626 449
878541 555307 525
811117 959856 525
212034 559290 470
511983 542625 439
864570 518404 525
589347 369303 470
434443 797738 509
514189 8551 470
381812 86669 443
131172 81732 354
877708 668335 525
254997 854547 525
12042 167110 383
78079 370425 443
934008 54796 525
764434 57117 509
326972 240890 407
330021 235974 407
332168 935294 525
845168 968307 507
790660 801364 468
205175 496662 449
475443 591235 470
1 999999 525
